UDP/RippleCounter/waveform.vcd
$date
	Fri Sep 18 13:26:07 2020
$end
$version
	Icarus Verilog
$end
$timescale
	1s
$end
$scope module testbench $end
$var wire 12 ! count [11:0] $end
$var reg 1 " clear $end
$var reg 1 # clk $end
$scope module DUT $end
$var wire 1 " clear $end
$var wire 1 # clk $end
$var wire 12 $ count [11:0] $end
$var wire 13 % clock [12:0] $end
$scope begin genblk1[0] $end
$upscope $end
$scope begin genblk1[1] $end
$upscope $end
$scope begin genblk1[2] $end
$upscope $end
$scope begin genblk1[3] $end
$upscope $end
$scope begin genblk1[4] $end
$upscope $end
$scope begin genblk1[5] $end
$upscope $end
$scope begin genblk1[6] $end
$upscope $end
$scope begin genblk1[7] $end
$upscope $end
$scope begin genblk1[8] $end
$upscope $end
$scope begin genblk1[9] $end
$upscope $end
$scope begin genblk1[10] $end
$upscope $end
$scope begin genblk1[11] $end
$upscope $end
$upscope $end
$upscope $end
$enddefinitions $end
#0
$dumpvars
bx0 %
bx $
0#
0"
bx !
$end
#1
b0 !
b0 $
b0 %
1"
#2
0"
#7
b1 %
1#
#12
b1 !
b1 $
b10 %
0#
#17
b11 %
1#
#22
b10 !
b10 $
b100 %
0#
#27
b101 %
1#
#32
b11 !
b11 $
b110 %
0#
#37
b111 %
1#
#42
b100 !
b100 $
b1000 %
0#
#47
b1001 %
1#
#52
b101 !
b101 $
b1010 %
0#
#57
b1011 %
1#
#62
b110 !
b110 $
b1100 %
0#
#67
b1101 %
1#
#72
b111 !
b111 $
b1110 %
0#
#77
b1111 %
1#
#82
b1000 !
b1000 $
b10000 %
0#
#87
b10001 %
1#
#92
b1001 !
b1001 $
b10010 %
0#
#97
b10011 %
1#
#102
b1010 !
b1010 $
b10100 %
0#
#107
b10101 %
1#
#112
b1011 !
b1011 $
b10110 %
0#
#117
b10111 %
1#
#122
b1100 !
b1100 $
b11000 %
0#
#127
b11001 %
1#
#132
b1101 !
b1101 $
b11010 %
0#
#137
b11011 %
1#
#142
b1110 !
b1110 $
b11100 %
0#
#147
b11101 %
1#
#152
b1111 !
b1111 $
b11110 %
0#
#157
b11111 %
1#
#162
b10000 !
b10000 $
b100000 %
0#
#167
b100001 %
1#
#172
b10001 !
b10001 $
b100010 %
0#
#177
b100011 %
1#
#182
b10010 !
b10010 $
b100100 %
0#
#187
b100101 %
1#
#192
b10011 !
b10011 $
b100110 %
0#
#197
b100111 %
1#
#202
b10100 !
b10100 $
b101000 %
0#
#207
b101001 %
1#
#212
b10101 !
b10101 $
b101010 %
0#
#217
b101011 %
1#
#222
b10110 !
b10110 $
b101100 %
0#
#227
b101101 %
1#
#232
b10111 !
b10111 $
b101110 %
0#
#237
b101111 %
1#
#242
b11000 !
b11000 $
b110000 %
0#
#247
b110001 %
1#
#252
b11001 !
b11001 $
b110010 %
0#
#257
b110011 %
1#
#262
b11010 !
b11010 $
b110100 %
0#
#267
b110101 %
1#
#272
b11011 !
b11011 $
b110110 %
0#
#277
b110111 %
1#
#282
b11100 !
b11100 $
b111000 %
0#
#287
b111001 %
1#
#292
b11101 !
b11101 $
b111010 %
0#
#297
b111011 %
1#
#302
b11110 !
b11110 $
b111100 %
0#
#307
b111101 %
1#
#312
b11111 !
b11111 $
b111110 %
0#
#317
b111111 %
1#
#322
b100000 !
b100000 $
b1000000 %
0#
#327
b1000001 %
1#
#332
b100001 !
b100001 $
b1000010 %
0#
#337
b1000011 %
1#
#342
b100010 !
b100010 $
b1000100 %
0#
#347
b1000101 %
1#
#352
b100011 !
b100011 $
b1000110 %
0#
#357
b1000111 %
1#
#362
b100100 !
b100100 $
b1001000 %
0#
#367
b1001001 %
1#
#372
b100101 !
b100101 $
b1001010 %
0#
#377
b1001011 %
1#
#382
b100110 !
b100110 $
b1001100 %
0#
#387
b1001101 %
1#
#392
b100111 !
b100111 $
b1001110 %
0#
#397
b1001111 %
1#
#402
b101000 !
b101000 $
b1010000 %
0#
#407
b1010001 %
1#
#412
b101001 !
b101001 $
b1010010 %
0#
#417
b1010011 %
1#
#422
b101010 !
b101010 $
b1010100 %
0#
#427
b1010101 %
1#
#432
b101011 !
b101011 $
b1010110 %
0#
#437
b1010111 %
1#
#442
b101100 !
b101100 $
b1011000 %
0#
#447
b1011001 %
1#
#452
b101101 !
b101101 $
b1011010 %
0#
#457
b1011011 %
1#
#462
b101110 !
b101110 $
b1011100 %
0#
#467
b1011101 %
1#
#472
b101111 !
b101111 $
b1011110 %
0#
#477
b1011111 %
1#
#482
b110000 !
b110000 $
b1100000 %
0#
#487
b1100001 %
1#
#492
b110001 !
b110001 $
b1100010 %
0#
#497
b1100011 %
1#
#502
b110010 !
b110010 $
b1100100 %
0#
#507
b1100101 %
1#
#512
b110011 !
b110011 $
b1100110 %
0#
#517
b1100111 %
1#
#522
b110100 !
b110100 $
b1101000 %
0#
#527
b1101001 %
1#
#532
b110101 !
b110101 $
b1101010 %
0#
#537
b1101011 %
1#
#542
b110110 !
b110110 $
b1101100 %
0#
#547
b1101101 %
1#
#552
b110111 !
b110111 $
b1101110 %
0#
#557
b1101111 %
1#
#562
b111000 !
b111000 $
b1110000 %
0#
#567
b1110001 %
1#
#572
b111001 !
b111001 $
b1110010 %
0#
#577
b1110011 %
1#
#582
b111010 !
b111010 $
b1110100 %
0#
#587
b1110101 %
1#
#592
b111011 !
b111011 $
b1110110 %
0#
#597
b1110111 %
1#
#602
b111100 !
b111100 $
b1111000 %
0#
#607
b1111001 %
1#
#612
b111101 !
b111101 $
b1111010 %
0#
#617
b1111011 %
1#
#622
b111110 !
b111110 $
b1111100 %
0#
#627
b1111101 %
1#
#632
b111111 !
b111111 $
b1111110 %
0#
#637
b1111111 %
1#
#642
b1000000 !
b1000000 $
b10000000 %
0#
#647
b10000001 %
1#
#652
b1000001 !
b1000001 $
b10000010 %
0#
#657
b10000011 %
1#
#662
b1000010 !
b1000010 $
b10000100 %
0#
#667
b10000101 %
1#
#672
b1000011 !
b1000011 $
b10000110 %
0#
#677
b10000111 %
1#
#682
b1000100 !
b1000100 $
b10001000 %
0#
#687
b10001001 %
1#
#692
b1000101 !
b1000101 $
b10001010 %
0#
#697
b10001011 %
1#
#702
b1000110 !
b1000110 $
b10001100 %
0#
#707
b10001101 %
1#
#712
b1000111 !
b1000111 $
b10001110 %
0#
#717
b10001111 %
1#
#722
b1001000 !
b1001000 $
b10010000 %
0#
#727
b10010001 %
1#
#732
b1001001 !
b1001001 $
b10010010 %
0#
#737
b10010011 %
1#
#742
b1001010 !
b1001010 $
b10010100 %
0#
#747
b10010101 %
1#
#752
b1001011 !
b1001011 $
b10010110 %
0#
#757
b10010111 %
1#
#762
b1001100 !
b1001100 $
b10011000 %
0#
#767
b10011001 %
1#
#772
b1001101 !
b1001101 $
b10011010 %
0#
#777
b10011011 %
1#
#782
b1001110 !
b1001110 $
b10011100 %
0#
#787
b10011101 %
1#
#792
b1001111 !
b1001111 $
b10011110 %
0#
#797
b10011111 %
1#
#802
b1010000 !
b1010000 $
b10100000 %
0#
#807
b10100001 %
1#
#812
b1010001 !
b1010001 $
b10100010 %
0#
#817
b10100011 %
1#
#822
b1010010 !
b1010010 $
b10100100 %
0#
#827
b10100101 %
1#
#832
b1010011 !
b1010011 $
b10100110 %
0#
#837
b10100111 %
1#
#842
b1010100 !
b1010100 $
b10101000 %
0#
#847
b10101001 %
1#
#852
b1010101 !
b1010101 $
b10101010 %
0#
#857
b10101011 %
1#
#862
b1010110 !
b1010110 $
b10101100 %
0#
#867
b10101101 %
1#
#872
b1010111 !
b1010111 $
b10101110 %
0#
#877
b10101111 %
1#
#882
b1011000 !
b1011000 $
b10110000 %
0#
#887
b10110001 %
1#
#892
b1011001 !
b1011001 $
b10110010 %
0#
#897
b10110011 %
1#
#902
b1011010 !
b1011010 $
b10110100 %
0#
#907
b10110101 %
1#
#912
b1011011 !
b1011011 $
b10110110 %
0#
#917
b10110111 %
1#
#922
b1011100 !
b1011100 $
b10111000 %
0#
#927
b10111001 %
1#
#932
b1011101 !
b1011101 $
b10111010 %
0#
#937
b10111011 %
1#
#942
b1011110 !
b1011110 $
b10111100 %
0#
#947
b10111101 %
1#
#952
b1011111 !
b1011111 $
b10111110 %
0#
#957
b10111111 %
1#
#962
b1100000 !
b1100000 $
b11000000 %
0#
#967
b11000001 %
1#
#972
b1100001 !
b1100001 $
b11000010 %
0#
#977
b11000011 %
1#
#982
b1100010 !
b1100010 $
b11000100 %
0#
#987
b11000101 %
1#
#992
b1100011 !
b1100011 $
b11000110 %
0#
#997
b11000111 %
1#
#1002
b1100100 !
b1100100 $
b11001000 %
0#
#1007
b11001001 %
1#
#1012
b1100101 !
b1100101 $
b11001010 %
0#
#1017
b11001011 %
1#
#1022
b1100110 !
b1100110 $
b11001100 %
0#
#1027
b11001101 %
1#
#1032
b1100111 !
b1100111 $
b11001110 %
0#
#1037
b11001111 %
1#
#1042
b1101000 !
b1101000 $
b11010000 %
0#
#1047
b11010001 %
1#
#1052
b1101001 !
b1101001 $
b11010010 %
0#
#1057
b11010011 %
1#
#1062
b1101010 !
b1101010 $
b11010100 %
0#
#1067
b11010101 %
1#
#1072
b1101011 !
b1101011 $
b11010110 %
0#
#1077
b11010111 %
1#
#1082
b1101100 !
b1101100 $
b11011000 %
0#
#1087
b11011001 %
1#
#1092
b1101101 !
b1101101 $
b11011010 %
0#
#1097
b11011011 %
1#
#1102
b1101110 !
b1101110 $
b11011100 %
0#
#1107
b11011101 %
1#
#1112
b1101111 !
b1101111 $
b11011110 %
0#
#1117
b11011111 %
1#
#1122
b1110000 !
b1110000 $
b11100000 %
0#
#1127
b11100001 %
1#
#1132
b1110001 !
b1110001 $
b11100010 %
0#
#1137
b11100011 %
1#
#1142
b1110010 !
b1110010 $
b11100100 %
0#
#1147
b11100101 %
1#
#1152
b1110011 !
b1110011 $
b11100110 %
0#
#1157
b11100111 %
1#
#1162
b1110100 !
b1110100 $
b11101000 %
0#
#1167
b11101001 %
1#
#1172
b1110101 !
b1110101 $
b11101010 %
0#
#1177
b11101011 %
1#
#1182
b1110110 !
b1110110 $
b11101100 %
0#
#1187
b11101101 %
1#
#1192
b1110111 !
b1110111 $
b11101110 %
0#
#1197
b11101111 %
1#
#1202
b1111000 !
b1111000 $
b11110000 %
0#
#1207
b11110001 %
1#
#1212
b1111001 !
b1111001 $
b11110010 %
0#
#1217
b11110011 %
1#
#1222
b1111010 !
b1111010 $
b11110100 %
0#
#1227
b11110101 %
1#
#1232
b1111011 !
b1111011 $
b11110110 %
0#
#1237
b11110111 %
1#
#1242
b1111100 !
b1111100 $
b11111000 %
0#
#1247
b11111001 %
1#
#1252
b1111101 !
b1111101 $
b11111010 %
0#
#1257
b11111011 %
1#
#1262
b1111110 !
b1111110 $
b11111100 %
0#
#1267
b11111101 %
1#
#1272
b1111111 !
b1111111 $
b11111110 %
0#
#1277
b11111111 %
1#
#1282
b10000000 !
b10000000 $
b100000000 %
0#
#1287
b100000001 %
1#
#1292
b10000001 !
b10000001 $
b100000010 %
0#
#1297
b100000011 %
1#
#1302
b10000010 !
b10000010 $
b100000100 %
0#
#1307
b100000101 %
1#
#1312
b10000011 !
b10000011 $
b100000110 %
0#
#1317
b100000111 %
1#
#1322
b10000100 !
b10000100 $
b100001000 %
0#
#1327
b100001001 %
1#
#1332
b10000101 !
b10000101 $
b100001010 %
0#
#1337
b100001011 %
1#
#1342
b10000110 !
b10000110 $
b100001100 %
0#
#1347
b100001101 %
1#
#1352
b10000111 !
b10000111 $
b100001110 %
0#
#1357
b100001111 %
1#
#1362
b10001000 !
b10001000 $
b100010000 %
0#
#1367
b100010001 %
1#
#1372
b10001001 !
b10001001 $
b100010010 %
0#
#1377
b100010011 %
1#
#1382
b10001010 !
b10001010 $
b100010100 %
0#
#1387
b100010101 %
1#
#1392
b10001011 !
b10001011 $
b100010110 %
0#
#1397
b100010111 %
1#
#1402
b10001100 !
b10001100 $
b100011000 %
0#
#1407
b100011001 %
1#
#1412
b10001101 !
b10001101 $
b100011010 %
0#
#1417
b100011011 %
1#
#1422
b10001110 !
b10001110 $
b100011100 %
0#
#1427
b100011101 %
1#
#1432
b10001111 !
b10001111 $
b100011110 %
0#
#1437
b100011111 %
1#
#1442
b10010000 !
b10010000 $
b100100000 %
0#
#1447
b100100001 %
1#
#1452
b10010001 !
b10010001 $
b100100010 %
0#
#1457
b100100011 %
1#
#1462
b10010010 !
b10010010 $
b100100100 %
0#
#1467
b100100101 %
1#
#1472
b10010011 !
b10010011 $
b100100110 %
0#
#1477
b100100111 %
1#
#1482
b10010100 !
b10010100 $
b100101000 %
0#
#1487
b100101001 %
1#
#1492
b10010101 !
b10010101 $
b100101010 %
0#
#1497
b100101011 %
1#
#1502
b10010110 !
b10010110 $
b100101100 %
0#
#1507
b100101101 %
1#
#1512
b10010111 !
b10010111 $
b100101110 %
0#
#1517
b100101111 %
1#
#1522
b10011000 !
b10011000 $
b100110000 %
0#
#1527
b100110001 %
1#
#1532
b10011001 !
b10011001 $
b100110010 %
0#
#1537
b100110011 %
1#
#1542
b10011010 !
b10011010 $
b100110100 %
0#
#1547
b100110101 %
1#
#1552
b10011011 !
b10011011 $
b100110110 %
0#
#1557
b100110111 %
1#
#1562
b10011100 !
b10011100 $
b100111000 %
0#
#1567
b100111001 %
1#
#1572
b10011101 !
b10011101 $
b100111010 %
0#
#1577
b100111011 %
1#
#1582
b10011110 !
b10011110 $
b100111100 %
0#
#1587
b100111101 %
1#
#1592
b10011111 !
b10011111 $
b100111110 %
0#
#1597
b100111111 %
1#
#1602
b10100000 !
b10100000 $
b101000000 %
0#
#1607
b101000001 %
1#
#1612
b10100001 !
b10100001 $
b101000010 %
0#
#1617
b101000011 %
1#
#1622
b10100010 !
b10100010 $
b101000100 %
0#
#1627
b101000101 %
1#
#1632
b10100011 !
b10100011 $
b101000110 %
0#
#1637
b101000111 %
1#
#1642
b10100100 !
b10100100 $
b101001000 %
0#
#1647
b101001001 %
1#
#1652
b10100101 !
b10100101 $
b101001010 %
0#
#1657
b101001011 %
1#
#1662
b10100110 !
b10100110 $
b101001100 %
0#
#1667
b101001101 %
1#
#1672
b10100111 !
b10100111 $
b101001110 %
0#
#1677
b101001111 %
1#
#1682
b10101000 !
b10101000 $
b101010000 %
0#
#1687
b101010001 %
1#
#1692
b10101001 !
b10101001 $
b101010010 %
0#
#1697
b101010011 %
1#
#1702
b10101010 !
b10101010 $
b101010100 %
0#
#1707
b101010101 %
1#
#1712
b10101011 !
b10101011 $
b101010110 %
0#
#1717
b101010111 %
1#
#1722
b10101100 !
b10101100 $
b101011000 %
0#
#1727
b101011001 %
1#
#1732
b10101101 !
b10101101 $
b101011010 %
0#
#1737
b101011011 %
1#
#1742
b10101110 !
b10101110 $
b101011100 %
0#
#1747
b101011101 %
1#
#1752
b10101111 !
b10101111 $
b101011110 %
0#
#1757
b101011111 %
1#
#1762
b10110000 !
b10110000 $
b101100000 %
0#
#1767
b101100001 %
1#
#1772
b10110001 !
b10110001 $
b101100010 %
0#
#1777
b101100011 %
1#
#1782
b10110010 !
b10110010 $
b101100100 %
0#
#1787
b101100101 %
1#
#1792
b10110011 !
b10110011 $
b101100110 %
0#
#1797
b101100111 %
1#
#1802
b10110100 !
b10110100 $
b101101000 %
0#
#1807
b101101001 %
1#
#1812
b10110101 !
b10110101 $
b101101010 %
0#
#1817
b101101011 %
1#
#1822
b10110110 !
b10110110 $
b101101100 %
0#
#1827
b101101101 %
1#
#1832
b10110111 !
b10110111 $
b101101110 %
0#
#1837
b101101111 %
1#
#1842
b10111000 !
b10111000 $
b101110000 %
0#
#1847
b101110001 %
1#
#1852
b10111001 !
b10111001 $
b101110010 %
0#
#1857
b101110011 %
1#
#1862
b10111010 !
b10111010 $
b101110100 %
0#
#1867
b101110101 %
1#
#1872
b10111011 !
b10111011 $
b101110110 %
0#
#1877
b101110111 %
1#
#1882
b10111100 !
b10111100 $
b101111000 %
0#
#1887
b101111001 %
1#
#1892
b10111101 !
b10111101 $
b101111010 %
0#
#1897
b101111011 %
1#
#1902
b10111110 !
b10111110 $
b101111100 %
0#
#1907
b101111101 %
1#
#1912
b10111111 !
b10111111 $
b101111110 %
0#
#1917
b101111111 %
1#
#1922
b11000000 !
b11000000 $
b110000000 %
0#
#1927
b110000001 %
1#
#1932
b11000001 !
b11000001 $
b110000010 %
0#
#1937
b110000011 %
1#
#1942
b11000010 !
b11000010 $
b110000100 %
0#
#1947
b110000101 %
1#
#1952
b11000011 !
b11000011 $
b110000110 %
0#
#1957
b110000111 %
1#
#1962
b11000100 !
b11000100 $
b110001000 %
0#
#1967
b110001001 %
1#
#1972
b11000101 !
b11000101 $
b110001010 %
0#
#1977
b110001011 %
1#
#1982
b11000110 !
b11000110 $
b110001100 %
0#
#1987
b110001101 %
1#
#1992
b11000111 !
b11000111 $
b110001110 %
0#
#1997
b110001111 %
1#
#2002
b11001000 !
b11001000 $
b110010000 %
0#
#2007
b110010001 %
1#
#2012
b11001001 !
b11001001 $
b110010010 %
0#
#2017
b110010011 %
1#
#2022
b11001010 !
b11001010 $
b110010100 %
0#
#2027
b110010101 %
1#
#2032
b11001011 !
b11001011 $
b110010110 %
0#
#2037
b110010111 %
1#
#2042
b11001100 !
b11001100 $
b110011000 %
0#
#2047
b110011001 %
1#
#2052
b11001101 !
b11001101 $
b110011010 %
0#
#2057
b110011011 %
1#
#2062
b11001110 !
b11001110 $
b110011100 %
0#
#2067
b110011101 %
1#
#2072
b11001111 !
b11001111 $
b110011110 %
0#
#2077
b110011111 %
1#
#2082
b11010000 !
b11010000 $
b110100000 %
0#
#2087
b110100001 %
1#
#2092
b11010001 !
b11010001 $
b110100010 %
0#
#2097
b110100011 %
1#
#2102
b11010010 !
b11010010 $
b110100100 %
0#
#2107
b110100101 %
1#
#2112
b11010011 !
b11010011 $
b110100110 %
0#
#2117
b110100111 %
1#
#2122
b11010100 !
b11010100 $
b110101000 %
0#
#2127
b110101001 %
1#
#2132
b11010101 !
b11010101 $
b110101010 %
0#
#2137
b110101011 %
1#
#2142
b11010110 !
b11010110 $
b110101100 %
0#
#2147
b110101101 %
1#
#2152
b11010111 !
b11010111 $
b110101110 %
0#
#2157
b110101111 %
1#
#2162
b11011000 !
b11011000 $
b110110000 %
0#
#2167
b110110001 %
1#
#2172
b11011001 !
b11011001 $
b110110010 %
0#
#2177
b110110011 %
1#
#2182
b11011010 !
b11011010 $
b110110100 %
0#
#2187
b110110101 %
1#
#2192
b11011011 !
b11011011 $
b110110110 %
0#
#2197
b110110111 %
1#
#2202
b11011100 !
b11011100 $
b110111000 %
0#
#2207
b110111001 %
1#
#2212
b11011101 !
b11011101 $
b110111010 %
0#
#2217
b110111011 %
1#
#2222
b11011110 !
b11011110 $
b110111100 %
0#
#2227
b110111101 %
1#
#2232
b11011111 !
b11011111 $
b110111110 %
0#
#2237
b110111111 %
1#
#2242
b11100000 !
b11100000 $
b111000000 %
0#
#2247
b111000001 %
1#
#2252
b11100001 !
b11100001 $
b111000010 %
0#
#2257
b111000011 %
1#
#2262
b11100010 !
b11100010 $
b111000100 %
0#
#2267
b111000101 %
1#
#2272
b11100011 !
b11100011 $
b111000110 %
0#
#2277
b111000111 %
1#
#2282
b11100100 !
b11100100 $
b111001000 %
0#
#2287
b111001001 %
1#
#2292
b11100101 !
b11100101 $
b111001010 %
0#
#2297
b111001011 %
1#
#2302
b11100110 !
b11100110 $
b111001100 %
0#
#2307
b111001101 %
1#
#2312
b11100111 !
b11100111 $
b111001110 %
0#
#2317
b111001111 %
1#
#2322
b11101000 !
b11101000 $
b111010000 %
0#
#2327
b111010001 %
1#
#2332
b11101001 !
b11101001 $
b111010010 %
0#
#2337
b111010011 %
1#
#2342
b11101010 !
b11101010 $
b111010100 %
0#
#2347
b111010101 %
1#
#2352
b11101011 !
b11101011 $
b111010110 %
0#
#2357
b111010111 %
1#
#2362
b11101100 !
b11101100 $
b111011000 %
0#
#2367
b111011001 %
1#
#2372
b11101101 !
b11101101 $
b111011010 %
0#
#2377
b111011011 %
1#
#2382
b11101110 !
b11101110 $
b111011100 %
0#
#2387
b111011101 %
1#
#2392
b11101111 !
b11101111 $
b111011110 %
0#
#2397
b111011111 %
1#
#2402
b11110000 !
b11110000 $
b111100000 %
0#
#2407
b111100001 %
1#
#2412
b11110001 !
b11110001 $
b111100010 %
0#
#2417
b111100011 %
1#
#2422
b11110010 !
b11110010 $
b111100100 %
0#
#2427
b111100101 %
1#
#2432
b11110011 !
b11110011 $
b111100110 %
0#
#2437
b111100111 %
1#
#2442
b11110100 !
b11110100 $
b111101000 %
0#
#2447
b111101001 %
1#
#2452
b11110101 !
b11110101 $
b111101010 %
0#
#2457
b111101011 %
1#
#2462
b11110110 !
b11110110 $
b111101100 %
0#
#2467
b111101101 %
1#
#2472
b11110111 !
b11110111 $
b111101110 %
0#
#2477
b111101111 %
1#
#2482
b11111000 !
b11111000 $
b111110000 %
0#
#2487
b111110001 %
1#
#2492
b11111001 !
b11111001 $
b111110010 %
0#
#2497
b111110011 %
1#
#2502
b11111010 !
b11111010 $
b111110100 %
0#
#2507
b111110101 %
1#
#2512
b11111011 !
b11111011 $
b111110110 %
0#
#2517
b111110111 %
1#
#2522
b11111100 !
b11111100 $
b111111000 %
0#
#2527
b111111001 %
1#
#2532
b11111101 !
b11111101 $
b111111010 %
0#
#2537
b111111011 %
1#
#2542
b11111110 !
b11111110 $
b111111100 %
0#
#2547
b111111101 %
1#
#2552
b11111111 !
b11111111 $
b111111110 %
0#
#2557
b111111111 %
1#
#2562
b100000000 !
b100000000 $
b1000000000 %
0#
#2567
b1000000001 %
1#
#2572
b100000001 !
b100000001 $
b1000000010 %
0#
#2577
b1000000011 %
1#
#2582
b100000010 !
b100000010 $
b1000000100 %
0#
#2587
b1000000101 %
1#
#2592
b100000011 !
b100000011 $
b1000000110 %
0#
#2597
b1000000111 %
1#
#2602
b100000100 !
b100000100 $
b1000001000 %
0#
#2607
b1000001001 %
1#
#2612
b100000101 !
b100000101 $
b1000001010 %
0#
#2617
b1000001011 %
1#
#2622
b100000110 !
b100000110 $
b1000001100 %
0#
#2627
b1000001101 %
1#
#2632
b100000111 !
b100000111 $
b1000001110 %
0#
#2637
b1000001111 %
1#
#2642
b100001000 !
b100001000 $
b1000010000 %
0#
#2647
b1000010001 %
1#
#2652
b100001001 !
b100001001 $
b1000010010 %
0#
#2657
b1000010011 %
1#
#2662
b100001010 !
b100001010 $
b1000010100 %
0#
#2667
b1000010101 %
1#
#2672
b100001011 !
b100001011 $
b1000010110 %
0#
#2677
b1000010111 %
1#
#2682
b100001100 !
b100001100 $
b1000011000 %
0#
#2687
b1000011001 %
1#
#2692
b100001101 !
b100001101 $
b1000011010 %
0#
#2697
b1000011011 %
1#
#2702
b100001110 !
b100001110 $
b1000011100 %
0#
#2707
b1000011101 %
1#
#2712
b100001111 !
b100001111 $
b1000011110 %
0#
#2717
b1000011111 %
1#
#2722
b100010000 !
b100010000 $
b1000100000 %
0#
#2727
b1000100001 %
1#
#2732
b100010001 !
b100010001 $
b1000100010 %
0#
#2737
b1000100011 %
1#
#2742
b100010010 !
b100010010 $
b1000100100 %
0#
#2747
b1000100101 %
1#
#2752
b100010011 !
b100010011 $
b1000100110 %
0#
#2757
b1000100111 %
1#
#2762
b100010100 !
b100010100 $
b1000101000 %
0#
#2767
b1000101001 %
1#
#2772
b100010101 !
b100010101 $
b1000101010 %
0#
#2777
b1000101011 %
1#
#2782
b100010110 !
b100010110 $
b1000101100 %
0#
#2787
b1000101101 %
1#
#2792
b100010111 !
b100010111 $
b1000101110 %
0#
#2797
b1000101111 %
1#
#2802
b100011000 !
b100011000 $
b1000110000 %
0#
#2807
b1000110001 %
1#
#2812
b100011001 !
b100011001 $
b1000110010 %
0#
#2817
b1000110011 %
1#
#2822
b100011010 !
b100011010 $
b1000110100 %
0#
#2827
b1000110101 %
1#
#2832
b100011011 !
b100011011 $
b1000110110 %
0#
#2837
b1000110111 %
1#
#2842
b100011100 !
b100011100 $
b1000111000 %
0#
#2847
b1000111001 %
1#
#2852
b100011101 !
b100011101 $
b1000111010 %
0#
#2857
b1000111011 %
1#
#2862
b100011110 !
b100011110 $
b1000111100 %
0#
#2867
b1000111101 %
1#
#2872
b100011111 !
b100011111 $
b1000111110 %
0#
#2877
b1000111111 %
1#
#2882
b100100000 !
b100100000 $
b1001000000 %
0#
#2887
b1001000001 %
1#
#2892
b100100001 !
b100100001 $
b1001000010 %
0#
#2897
b1001000011 %
1#
#2902
b100100010 !
b100100010 $
b1001000100 %
0#
#2907
b1001000101 %
1#
#2912
b100100011 !
b100100011 $
b1001000110 %
0#
#2917
b1001000111 %
1#
#2922
b100100100 !
b100100100 $
b1001001000 %
0#
#2927
b1001001001 %
1#
#2932
b100100101 !
b100100101 $
b1001001010 %
0#
#2937
b1001001011 %
1#
#2942
b100100110 !
b100100110 $
b1001001100 %
0#
#2947
b1001001101 %
1#
#2952
b100100111 !
b100100111 $
b1001001110 %
0#
#2957
b1001001111 %
1#
#2962
b100101000 !
b100101000 $
b1001010000 %
0#
#2967
b1001010001 %
1#
#2972
b100101001 !
b100101001 $
b1001010010 %
0#
#2977
b1001010011 %
1#
#2982
b100101010 !
b100101010 $
b1001010100 %
0#
#2987
b1001010101 %
1#
#2992
b100101011 !
b100101011 $
b1001010110 %
0#
#2997
b1001010111 %
1#
#3002
b100101100 !
b100101100 $
b1001011000 %
0#
#3007
b1001011001 %
1#
#3012
b100101101 !
b100101101 $
b1001011010 %
0#
#3017
b1001011011 %
1#
#3022
b100101110 !
b100101110 $
b1001011100 %
0#
#3027
b1001011101 %
1#
#3032
b100101111 !
b100101111 $
b1001011110 %
0#
#3037
b1001011111 %
1#
#3042
b100110000 !
b100110000 $
b1001100000 %
0#
#3047
b1001100001 %
1#
#3052
b100110001 !
b100110001 $
b1001100010 %
0#
#3057
b1001100011 %
1#
#3062
b100110010 !
b100110010 $
b1001100100 %
0#
#3067
b1001100101 %
1#
#3072
b100110011 !
b100110011 $
b1001100110 %
0#
#3077
b1001100111 %
1#
#3082
b100110100 !
b100110100 $
b1001101000 %
0#
#3087
b1001101001 %
1#
#3092
b100110101 !
b100110101 $
b1001101010 %
0#
#3097
b1001101011 %
1#
#3102
b100110110 !
b100110110 $
b1001101100 %
0#
#3107
b1001101101 %
1#
#3112
b100110111 !
b100110111 $
b1001101110 %
0#
#3117
b1001101111 %
1#
#3122
b100111000 !
b100111000 $
b1001110000 %
0#
#3127
b1001110001 %
1#
#3132
b100111001 !
b100111001 $
b1001110010 %
0#
#3137
b1001110011 %
1#
#3142
b100111010 !
b100111010 $
b1001110100 %
0#
#3147
b1001110101 %
1#
#3152
b100111011 !
b100111011 $
b1001110110 %
0#
#3157
b1001110111 %
1#
#3162
b100111100 !
b100111100 $
b1001111000 %
0#
#3167
b1001111001 %
1#
#3172
b100111101 !
b100111101 $
b1001111010 %
0#
#3177
b1001111011 %
1#
#3182
b100111110 !
b100111110 $
b1001111100 %
0#
#3187
b1001111101 %
1#
#3192
b100111111 !
b100111111 $
b1001111110 %
0#
#3197
b1001111111 %
1#
#3202
b101000000 !
b101000000 $
b1010000000 %
0#
#3207
b1010000001 %
1#
#3212
b101000001 !
b101000001 $
b1010000010 %
0#
#3217
b1010000011 %
1#
#3222
b101000010 !
b101000010 $
b1010000100 %
0#
#3227
b1010000101 %
1#
#3232
b101000011 !
b101000011 $
b1010000110 %
0#
#3237
b1010000111 %
1#
#3242
b101000100 !
b101000100 $
b1010001000 %
0#
#3247
b1010001001 %
1#
#3252
b101000101 !
b101000101 $
b1010001010 %
0#
#3257
b1010001011 %
1#
#3262
b101000110 !
b101000110 $
b1010001100 %
0#
#3267
b1010001101 %
1#
#3272
b101000111 !
b101000111 $
b1010001110 %
0#
#3277
b1010001111 %
1#
#3282
b101001000 !
b101001000 $
b1010010000 %
0#
#3287
b1010010001 %
1#
#3292
b101001001 !
b101001001 $
b1010010010 %
0#
#3297
b1010010011 %
1#
#3302
b101001010 !
b101001010 $
b1010010100 %
0#
#3307
b1010010101 %
1#
#3312
b101001011 !
b101001011 $
b1010010110 %
0#
#3317
b1010010111 %
1#
#3322
b101001100 !
b101001100 $
b1010011000 %
0#
#3327
b1010011001 %
1#
#3332
b101001101 !
b101001101 $
b1010011010 %
0#
#3337
b1010011011 %
1#
#3342
b101001110 !
b101001110 $
b1010011100 %
0#
#3347
b1010011101 %
1#
#3352
b101001111 !
b101001111 $
b1010011110 %
0#
#3357
b1010011111 %
1#
#3362
b101010000 !
b101010000 $
b1010100000 %
0#
#3367
b1010100001 %
1#
#3372
b101010001 !
b101010001 $
b1010100010 %
0#
#3377
b1010100011 %
1#
#3382
b101010010 !
b101010010 $
b1010100100 %
0#
#3387
b1010100101 %
1#
#3392
b101010011 !
b101010011 $
b1010100110 %
0#
#3397
b1010100111 %
1#
#3402
b101010100 !
b101010100 $
b1010101000 %
0#
#3407
b1010101001 %
1#
#3412
b101010101 !
b101010101 $
b1010101010 %
0#
#3417
b1010101011 %
1#
#3422
b101010110 !
b101010110 $
b1010101100 %
0#
#3427
b1010101101 %
1#
#3432
b101010111 !
b101010111 $
b1010101110 %
0#
#3437
b1010101111 %
1#
#3442
b101011000 !
b101011000 $
b1010110000 %
0#
#3447
b1010110001 %
1#
#3452
b101011001 !
b101011001 $
b1010110010 %
0#
#3457
b1010110011 %
1#
#3462
b101011010 !
b101011010 $
b1010110100 %
0#
#3467
b1010110101 %
1#
#3472
b101011011 !
b101011011 $
b1010110110 %
0#
#3477
b1010110111 %
1#
#3482
b101011100 !
b101011100 $
b1010111000 %
0#
#3487
b1010111001 %
1#
#3492
b101011101 !
b101011101 $
b1010111010 %
0#
#3497
b1010111011 %
1#
